{
  "user": [
    {
      "username": "Ingo",
      "id": 1
    }
  ],
  "phraselist": [
    {
      "body": "123",
      "id": 8
    },
    {
      "body": "1234",
      "id": 9
    },
    {
      "body": "1234567",
      "id": 10
    },
    {
      "body": "1234567",
      "id": 11
    },
    {
      "body": "123",
      "id": 12
    },
    {
      "body": "123",
      "id": 13
    },
    {
      "body": "12345",
      "id": 14
    },
    {
      "body": "123456",
      "id": 15
    },
    {
      "body": "1234562",
      "id": 16
    },
    {
      "body": "12345623",
      "id": 17
    },
    {
      "body": "1",
      "id": 18
    },
    {
      "body": "12",
      "id": 19
    },
    {
      "body": "123",
      "id": 20
    },
    {
      "body": "1234",
      "id": 21
    },
    {
      "body": "12345",
      "id": 22
    },
    {
      "body": "123456",
      "id": 23
    },
    {
      "body": "1234567",
      "id": 24
    }
  ]
}